Division,WeightClassKg,Place,Name,Team,BodyweightKg,Best3SquatKg,Best3BenchKg,Best3DeadliftKg,TotalKg,Equipment,Event,Sex,BirthDate
Boys,51.71,1,Isaiah Reyes,Lockney,51.71,131.54,81.65,145.15,358.34,Single-ply,SBD,M,
Boys,51.71,2,David Perez #4,Tahoka,48.26,115.67,61.23,131.54,308.44,Single-ply,SBD,M,
Boys,55.79,1,Dillon Bruington,Floydada,55.79,140.61,70.31,131.54,342.46,Single-ply,SBD,M,
Boys,55.79,2,Koy Torres,Sundown,55.79,124.74,68.04,142.88,335.66,Single-ply,SBD,M,
Boys,55.79,3,Jayson Cooper,Floydada,55.43,120.2,61.23,131.54,312.98,Single-ply,SBD,M,
Boys,55.79,4,John Michael Calzoncit,Tahoka,55.52,115.67,54.43,129.27,299.37,Single-ply,SBD,M,
Boys,55.79,5,Issac Ruiz,Slaton,55.43,99.79,74.84,117.93,292.57,Single-ply,SBD,M,
Boys,55.79,6,Quincey Graham,Slaton,53.98,102.06,58.97,106.59,267.62,Single-ply,SBD,M,
Boys,59.87,1,Carlos Perez #3,Sundown,58.69,149.69,83.91,167.83,401.43,Single-ply,SBD,M,
Boys,59.87,2,Israel Herrera,Slaton,59.15,113.4,63.5,136.08,312.98,Single-ply,SBD,M,
Boys,59.87,DQ,Aidon Olivas,Sundown,59.24,158.76,92.99,,,Single-ply,SBD,M,
Boys,59.87,DQ,David Fisher,Abernathy,58.51,,,,,Single-ply,SBD,M,
Boys,67.13,1,Pablo Mendoza,Sundown,63.05,195.04,113.4,208.65,517.1,Single-ply,SBD,M,
Boys,67.13,2,Eddie Betencourt,Slaton,66.86,174.63,113.4,204.12,492.15,Single-ply,SBD,M,
Boys,67.13,3,Ben Flores,Abernathy,66.41,170.1,95.25,208.65,474,Single-ply,SBD,M,
Boys,67.13,4,Landen Simmons,Slaton,64.86,185.97,111.13,170.1,467.2,Single-ply,SBD,M,
Boys,67.13,5,Daniel Estrada,New Home,66.41,176.9,111.13,179.17,467.2,Single-ply,SBD,M,
Boys,67.13,6,Blake Johnson,Hale Center,66.86,176.9,90.72,174.63,442.25,Single-ply,SBD,M,
Boys,67.13,7,Marcos Hernandez,Sundown,65.95,161.03,92.99,181.44,435.45,Single-ply,SBD,M,
Boys,67.13,8,Ramon Zubiate,Denver City,65.41,161.03,104.33,145.15,410.5,Single-ply,SBD,M,
Boys,67.13,9,Mark Reyna,Sundown,62.96,154.22,86.18,165.56,405.97,Single-ply,SBD,M,
Boys,67.13,10,Avel Sinklier,Abernathy,66.22,156.49,92.99,156.49,405.97,Single-ply,SBD,M,
Boys,67.13,11,Jonathan Renteria,Tahoka,66.32,149.69,72.57,181.44,403.7,Single-ply,SBD,M,
Boys,67.13,12,Robert Soliz,Sundown,62.14,151.95,90.72,149.69,392.36,Single-ply,SBD,M,
Boys,67.13,13,Paxtyn Gwin,Tahoka,64.59,151.95,90.72,149.69,392.36,Single-ply,SBD,M,
Boys,67.13,14,Xavier Rodriguez,Olton,63.23,136.08,86.18,136.08,358.34,Single-ply,SBD,M,
Boys,67.13,15,Braxton Beck,New Home,64.05,127.01,81.65,142.88,351.53,Single-ply,SBD,M,
Boys,67.13,16,Damian Marquez,Olton,62.96,104.33,81.65,133.81,319.78,Single-ply,SBD,M,
Boys,67.13,17,Nick Hart #2,Sundown,60.42,99.79,54.43,115.67,269.89,Single-ply,SBD,M,
Boys,67.13,18,Jake Jacquez,Sundown,63.96,86.18,63.5,74.84,224.53,Single-ply,SBD,M,
Boys,74.84,1,Alex Carmona,Floydada,73.84,242.67,138.35,217.72,598.74,Single-ply,SBD,M,
Boys,74.84,2,Alexander Herevia,Tahoka,74.39,226.8,140.61,208.65,576.06,Single-ply,SBD,M,
Boys,74.84,3,Cade Conway,Sundown,74.21,204.12,136.08,201.85,542.04,Single-ply,SBD,M,
Boys,74.84,4,Chris Rader,Slaton,71.58,190.51,117.93,208.65,517.1,Single-ply,SBD,M,
Boys,74.84,5,Diego Maldonado,Slaton,71.85,165.56,111.13,181.44,458.13,Single-ply,SBD,M,
Boys,74.84,6,Ivan Trinidad,Denver City,70.94,136.08,99.79,167.83,403.7,Single-ply,SBD,M,
Boys,74.84,7,Kash Koonsman,Lubbock Roosevelt,69.04,127.01,95.25,156.49,378.75,Single-ply,SBD,M,
Boys,74.84,8,Jc Camacho,Sundown,70.76,145.15,77.11,149.69,371.95,Single-ply,SBD,M,
Boys,74.84,9,Jaxson Wiley,Abernathy,74.21,113.4,77.11,131.54,322.05,Single-ply,SBD,M,
Boys,74.84,DQ,Malik Hamilton,Tahoka,71.12,201.85,,,,Single-ply,SBD,M,
Boys,74.84,DQ,Josh Marquez,Olton,67.95,161.03,88.45,,,Single-ply,SBD,M,
Boys,74.84,DQ,Logan Boggs,Sundown,72.39,,,,,Single-ply,SBD,M,
Boys,82.1,1,Blake Hulse,Sundown,80.65,272.16,149.69,240.4,662.24,Single-ply,SBD,M,
Boys,82.1,2,Kevin Garcia,Sundown,81.37,217.72,142.88,217.72,578.33,Single-ply,SBD,M,
Boys,82.1,3,Silas Urrutia,Lockney,80.74,206.38,129.27,188.24,523.9,Single-ply,SBD,M,
Boys,82.1,4,Junior Eustace,Lubbock Roosevelt,80.47,176.9,90.72,190.51,458.13,Single-ply,SBD,M,
Boys,82.1,5,Andrew Hernandez #1,Sundown,80.12,167.83,104.33,163.29,435.45,Single-ply,SBD,M,
Boys,82.1,6,Elijah Gutierrez,Denver City,82.1,170.1,86.18,142.88,399.16,Single-ply,SBD,M,
Boys,82.1,7,Isiah Flores,Sundown,77.38,142.88,90.72,158.76,392.36,Single-ply,SBD,M,
Boys,82.1,8,Nick Caffey,Lubbock Roosevelt,82.1,127.01,72.57,149.69,349.27,Single-ply,SBD,M,
Boys,82.1,DQ,Alex Trevino,Lubbock Roosevelt,79.47,197.31,,,,Single-ply,SBD,M,
Boys,89.81,1,Nicodemus Ayala,Tahoka,89.18,231.33,158.76,219.99,610.08,Single-ply,SBD,M,
Boys,89.81,2,EJ Hernandez,Sundown,83.28,215.46,147.42,233.6,596.47,Single-ply,SBD,M,
Boys,89.81,3,Jonathan Golightly,Sundown,88.63,229.06,149.69,208.65,587.4,Single-ply,SBD,M,
Boys,89.81,4,Gavin Richardson,Sundown,89.81,217.72,127.01,226.8,571.53,Single-ply,SBD,M,
Boys,89.81,5,Diego Hernandez,Sundown,86.64,215.46,131.54,217.72,564.72,Single-ply,SBD,M,
Boys,89.81,6,Tj Payne,Slaton,87.27,235.87,129.27,190.51,555.65,Single-ply,SBD,M,
Boys,89.81,7,Sergio Guerrero,Olton,84.46,229.06,124.74,190.51,544.31,Single-ply,SBD,M,
Boys,89.81,8,JJ Diaz,Lubbock Roosevelt,84.64,199.58,133.81,199.58,532.97,Single-ply,SBD,M,
Boys,89.81,9,Tae Thompson,Slaton,88,217.72,136.08,167.83,521.63,Single-ply,SBD,M,
Boys,89.81,10,John Cortez,Abernathy,88.45,190.51,92.99,195.04,478.54,Single-ply,SBD,M,
Boys,89.81,11,Pedro Pedroza,Olton,88.27,149.69,104.33,158.76,412.77,Single-ply,SBD,M,
Boys,89.81,12,Marcos Vargas,Sundown,89.18,161.03,88.45,145.15,394.63,Single-ply,SBD,M,
Boys,89.81,13,Landry Miller,Abernathy,88.18,127.01,83.91,140.61,351.53,Single-ply,SBD,M,
Boys,99.79,1,Damian Pena,Denver City,92.8,229.06,138.35,208.65,576.06,Single-ply,SBD,M,
Boys,99.79,2,Zakary Gragson,Sundown,92.99,215.46,133.81,208.65,557.92,Single-ply,SBD,M,
Boys,99.79,3,Bryson Leaks,Abernathy,95.71,199.58,136.08,195.04,530.7,Single-ply,SBD,M,
Boys,99.79,4,Manny Gonzalez,Denver City,99.7,176.9,113.4,183.7,474,Single-ply,SBD,M,
Boys,99.79,5,Daniel Leyva,Slaton,92.62,199.58,99.79,167.83,467.2,Single-ply,SBD,M,
Boys,99.79,6,Colton McCarty,Tahoka,90.81,147.42,81.65,185.97,415.04,Single-ply,SBD,M,
Boys,99.79,DQ,Tyler Ivins,Olton,93.98,183.7,113.4,,,Single-ply,SBD,M,
Boys,109.77,1,Andy Casias,Abernathy,105.05,249.48,145.15,226.8,621.42,Single-ply,SBD,M,
Boys,109.77,2,Andy Castillo,Sundown,105.69,226.8,129.27,235.87,591.94,Single-ply,SBD,M,
Boys,109.77,3,Juan Carlos Pedroza,Olton,107.95,219.99,151.95,219.99,591.94,Single-ply,SBD,M,
Boys,109.77,4,Jacob Johnston,Floydada,108.32,217.72,122.47,222.26,562.45,Single-ply,SBD,M,
Boys,109.77,5,Esai Flores,Hale Center,104.14,219.99,111.13,195.04,526.17,Single-ply,SBD,M,
Boys,109.77,6,Alberto Dorantes,Olton,102.69,174.63,113.4,197.31,485.34,Single-ply,SBD,M,
Boys,109.77,7,Seth Allred,Abernathy,102.42,163.29,90.72,138.35,392.36,Single-ply,SBD,M,
Boys,109.77,DQ,Randy Cantu,Abernathy,106.41,165.56,108.86,,,Single-ply,SBD,M,
Boys,124.74,1,Jesus Guerra,Sudan,118.02,238.14,124.74,204.12,566.99,Single-ply,SBD,M,
Boys,124.74,2,Corbin Escobedo,Tahoka,122.2,272.16,81.65,204.12,557.92,Single-ply,SBD,M,
Boys,124.74,3,Jeffery Rodriguez,Sundown,112.22,197.31,111.13,190.51,498.95,Single-ply,SBD,M,
Boys,124.74,4,Dekota Golightly,Sundown,113.58,199.58,124.74,163.29,487.61,Single-ply,SBD,M,
Boys,124.74,5,Jon Dylan Rodriguez,Tahoka,120.38,176.9,102.06,170.1,449.06,Single-ply,SBD,M,
Boys,124.74+,1,Nico Rodriguez,Sundown,131.54,240.4,165.56,208.65,614.62,Single-ply,SBD,M,
Boys,124.74+,2,Kade Hurt,Tahoka,131.18,204.12,95.25,179.17,478.54,Single-ply,SBD,M,
