Division,WeightClassKg,Place,Name,Team,BodyweightKg,Best3SquatKg,Best3BenchKg,Best3DeadliftKg,TotalKg,Equipment,Event,Sex
Boys,51.71,1,Richard Rodriguez,Whitehouse,51.53,111.13,61.23,117.93,290.3,Single-ply,SBD,M
Boys,51.71,2,Gabe Hawver,Hemphill,51.26,102.06,38.56,111.13,251.74,Single-ply,SBD,M
Boys,51.71,3,Caden Mullican,Cayuga,51.53,90.72,40.82,92.99,224.53,Single-ply,SBD,M
Boys,55.79,1,Landon Warren,Bullard,55.79,142.88,86.18,161.03,390.09,Single-ply,SBD,M
Boys,55.79,2,Osvaldo Palacios,Palestine,55.7,113.4,68.04,124.74,306.17,Single-ply,SBD,M
Boys,55.79,3,Ryan Hammock,Elkhart,54.61,99.79,58.97,120.2,278.96,Single-ply,SBD,M
Boys,55.79,4,Kemon Ross,Palestine,55.79,120.2,49.9,108.86,278.96,Single-ply,SBD,M
Boys,59.87,1,Kevin Chavez,New London West Rusk,59.87,147.42,88.45,167.83,403.7,Single-ply,SBD,M
Boys,59.87,2,Cannon Churchman,Palestine Westwood,58.97,170.1,79.38,140.61,390.09,Single-ply,SBD,M
Boys,59.87,3,Justin Villatoro,Palestine,58.24,138.35,74.84,136.08,349.27,Single-ply,SBD,M
Boys,59.87,4,Brodie Chandler,Shelbyville,59.69,115.67,86.18,136.08,337.93,Single-ply,SBD,M
Boys,59.87,5,Seth Sanders,Shelbyville,56.61,117.93,72.57,140.61,331.12,Single-ply,SBD,M
Boys,59.87,6,Javi Zamora,Palestine,58.42,129.27,70.31,129.27,328.85,Single-ply,SBD,M
Boys,59.87,7,Braiden Miller,Whitehouse,59.51,127.01,,111.13,238.14,Single-ply,SD,M
Boys,59.87,8,Cagen Clark,Palestine,57.24,92.99,43.09,83.91,219.99,Single-ply,SBD,M
Boys,67.13,1,Damion Brown,Bullard,66.5,183.7,115.67,174.63,474,Single-ply,SBD,M
Boys,67.13,2,Caleb Smith #8,Troup,66.86,201.85,99.79,163.29,464.93,Single-ply,SBD,M
Boys,67.13,3,Chadd Cole,Troup,66.13,176.9,97.52,179.17,453.59,Single-ply,SBD,M
Boys,67.13,4,JD Prince,Beckville,65.68,158.76,95.25,158.76,412.77,Single-ply,SBD,M
Boys,67.13,5,Michael Rosales,Rusk,65.23,151.95,86.18,158.76,396.89,Single-ply,SBD,M
Boys,67.13,6,Kyle Kennerk,Cayuga,66.86,151.95,79.38,161.03,392.36,Single-ply,SBD,M
Boys,67.13,7,Zack Sonnier,Hemphill,66.59,147.42,99.79,142.88,390.09,Single-ply,SBD,M
Boys,67.13,8,John Engle,Bullard,66.59,140.61,88.45,140.61,369.68,Single-ply,SBD,M
Boys,67.13,9,Payton StClaire,Beckville,66.13,124.74,74.84,158.76,358.34,Single-ply,SBD,M
Boys,67.13,10,Eduardo Rojo,Troup,67.04,113.4,83.91,149.69,347,Single-ply,SBD,M
Boys,67.13,11,Jose Gonzalez #13,Troup,67.04,113.4,68.04,142.88,324.32,Single-ply,SBD,M
Boys,67.13,12,Ethan Parrie,Hemphill,60.24,102.06,65.77,145.15,312.98,Single-ply,SBD,M
Boys,67.13,13,Ahren Turner,Hemphill,64.5,145.15,,165.56,310.71,Single-ply,SD,M
Boys,67.13,14,Max Gomez,Beckville,61.51,111.13,54.43,124.74,290.3,Single-ply,SBD,M
Boys,67.13,15,Carter Grash,Cayuga,65.59,124.74,70.31,,195.04,Single-ply,SB,M
Boys,74.84,1,Chris Galvan #1,Jacksonville,73.03,213.19,127.01,219.99,560.19,Single-ply,SBD,M
Boys,74.84,2,Michael Zuniga #1,Troup,73.66,199.58,115.67,185.97,501.22,Single-ply,SBD,M
Boys,74.84,3,Bryce Attaway,Troup,73.3,192.78,113.4,188.24,494.42,Single-ply,SBD,M
Boys,74.84,4,Zach Morrow #3,Palestine Westwood,67.77,192.78,113.4,185.97,492.15,Single-ply,SBD,M
Boys,74.84,5,Chaez Spurlock,Whitehouse,73.66,188.24,106.59,197.31,492.15,Single-ply,SBD,M
Boys,74.84,6,Jose Bueno,Center,73.94,201.85,97.52,176.9,476.27,Single-ply,SBD,M
Boys,74.84,7,Jacobi Jackson,Shelbyville,70.49,190.51,99.79,181.44,471.74,Single-ply,SBD,M
Boys,74.84,8,Israel Enriquez,Rusk,72.94,181.44,95.25,181.44,458.13,Single-ply,SBD,M
Boys,74.84,9,JP Hucklebridge,Palestine Westwood,74.84,158.76,83.91,172.37,415.04,Single-ply,SBD,M
Boys,74.84,10,Robert Buckley,Cayuga,71.94,158.76,90.72,158.76,408.23,Single-ply,SBD,M
Boys,74.84,11,Dekedryn Butler,Palestine,73.75,154.22,70.31,172.37,396.89,Single-ply,SBD,M
Boys,74.84,12,Dawson Windham #2,Shelbyville,70.08,145.15,68.04,147.42,360.61,Single-ply,SBD,M
Boys,74.84,13,Gerardo Ramirez,Jacksonville,68.76,138.35,86.18,133.81,358.34,Single-ply,SBD,M
Boys,74.84,14,Jay Shepherd,Grapeland,71.58,147.42,70.31,136.08,353.8,Single-ply,SBD,M
Boys,74.84,15,Bryan Perez,Grapeland,73.21,131.54,68.04,154.22,353.8,Single-ply,SBD,M
Boys,74.84,16,Chris Keating,Beckville,72.21,113.4,86.18,147.42,347,Single-ply,SBD,M
Boys,74.84,17,Cade Tendol,Shelbyville,73.94,108.86,70.31,133.81,312.98,Single-ply,SBD,M
Boys,74.84,18,Jai Mickens,Cayuga,68.4,120.2,63.5,120.2,303.91,Single-ply,SBD,M
Boys,74.84,19,Jeremiah Ramirez,Troup,68.13,108.86,70.31,113.4,292.57,Single-ply,SBD,M
Boys,74.84,20,Rodger Gonzalez,Elkhart,67.77,111.13,56.7,113.4,281.23,Single-ply,SBD,M
Boys,74.84,21,Christian Burns,Hemphill,69.94,158.76,74.84,,233.6,Single-ply,SB,M
Boys,74.84,22,Draven DeLeon,Palestine,68.4,129.27,79.38,,208.65,Single-ply,SB,M
Boys,74.84,23,Adam Gardner,Hemphill,68.22,120.2,83.91,,204.12,Single-ply,SB,M
Boys,82.1,1,Ryan Lindsay,Elkhart,78.83,256.28,136.08,238.14,630.49,Single-ply,SBD,M
Boys,82.1,2,Ramiro Martinez,Troup,79.92,226.8,140.61,244.94,612.35,Single-ply,SBD,M
Boys,82.1,3,Tristan Clark,Troup,81.37,208.65,129.27,233.6,571.53,Single-ply,SBD,M
Boys,82.1,4,Micah Beale,Jacksonville,80.29,222.26,124.74,201.85,548.85,Single-ply,SBD,M
Boys,82.1,5,Byron Johnson #1,Rusk,79.74,181.44,115.67,204.12,501.22,Single-ply,SBD,M
Boys,82.1,6,Reece Ricketts,Bullard,80.1,188.24,120.2,190.51,498.95,Single-ply,SBD,M
Boys,82.1,7,Ian Shahan,Joaquin,80.83,174.63,106.59,190.51,471.74,Single-ply,SBD,M
Boys,82.1,8,Kevin Kennerk,Cayuga,78.02,181.44,92.99,188.24,462.66,Single-ply,SBD,M
Boys,82.1,9,Brayden Bulman,Whitehouse,79.2,172.37,111.13,174.63,458.13,Single-ply,SBD,M
Boys,82.1,10,Jesus Bravo,Joaquin,81.92,183.7,102.06,158.76,444.52,Single-ply,SBD,M
Boys,82.1,11,Casen Grasch,Cayuga,80.38,170.1,92.99,172.37,435.45,Single-ply,SBD,M
Boys,82.1,12,Keshawn Nonette,Palestine,80.29,158.76,106.59,158.76,424.11,Single-ply,SBD,M
Boys,82.1,13,Jake Liker,Center,79.74,158.76,97.52,163.29,419.57,Single-ply,SBD,M
Boys,82.1,14,Roderick Deyon,Palestine,80.92,188.24,129.27,,317.51,Single-ply,SB,M
Boys,82.1,15,Brenden Gabler,Palestine Westwood,77.66,138.35,,158.76,297.1,Single-ply,SD,M
Boys,89.81,1,Witt Dockens,Center,88.27,283.5,151.95,235.87,671.32,Single-ply,SBD,M
Boys,89.81,2,Michael Jones #11,Elkhart,82.92,231.33,158.76,244.94,635.03,Single-ply,SBD,M
Boys,89.81,3,Diego Molina,New London West Rusk,85,163.29,102.06,195.04,460.4,Single-ply,SBD,M
Boys,89.81,4,LaJuan Davis,Palestine Westwood,85.64,158.76,97.52,199.58,455.86,Single-ply,SBD,M
Boys,89.81,5,Gabriel Lejune,Hemphill,84.01,158.76,95.25,170.1,424.11,Single-ply,SBD,M
Boys,89.81,6,Oscar Arrellano,Jacksonville,83.91,204.12,,208.65,412.77,Single-ply,SD,M
Boys,89.81,7,Ty Graffeo,Hemphill,84.01,124.74,102.06,170.1,396.89,Single-ply,SBD,M
Boys,89.81,8,Liam Huynh,Whitehouse,89.36,138.35,79.38,158.76,376.48,Single-ply,SBD,M
Boys,89.81,9,Tryston Holland,Beckville,87,170.1,,192.78,362.87,Single-ply,SD,M
Boys,89.81,10,Camron Spurlock,Palestine,83.37,174.63,88.45,,263.08,Single-ply,SB,M
Boys,99.79,1,Katavious Evans,Center,94.26,251.74,120.2,222.26,594.21,Single-ply,SBD,M
Boys,99.79,2,Cerdarian Davis,Grapeland,94.62,204.12,97.52,226.8,528.44,Single-ply,SBD,M
Boys,99.79,3,Aaron Davis #5,Grapeland,93.71,226.8,92.99,204.12,523.9,Single-ply,SBD,M
Boys,99.79,4,Ashton Henry,Grapeland,93.44,204.12,102.06,208.65,514.83,Single-ply,SBD,M
Boys,99.79,5,Jeremy Singleton,Jacksonville,96.89,167.83,108.86,154.22,430.91,Single-ply,SBD,M
Boys,99.79,6,Hunter Casey #1,Shelbyville,95.16,163.29,95.25,158.76,417.3,Single-ply,SBD,M
Boys,99.79,7,Colten Crawford,Center,91.72,161.03,88.45,165.56,415.04,Single-ply,SBD,M
Boys,99.79,8,Cameron Bridges,Bullard,95.71,151.95,97.52,156.49,405.97,Single-ply,SBD,M
Boys,99.79,9,Alberto Castillo,Shelbyville,99.52,151.95,88.45,163.29,403.7,Single-ply,SBD,M
Boys,99.79,10,Matthew Barber,Cayuga,97.34,133.81,97.52,158.76,390.09,Single-ply,SBD,M
Boys,99.79,11,Jackson Rogers,Rusk,91.63,133.81,83.91,163.29,381.02,Single-ply,SBD,M
Boys,99.79,12,Dalton Fitzpatrick,Cayuga,94.53,151.95,77.11,140.61,369.68,Single-ply,SBD,M
Boys,99.79,13,Michael Raymond,New London West Rusk,97.7,183.7,,183.7,367.41,Single-ply,SD,M
Boys,99.79,14,Nick Acker,Rusk,97.89,199.58,,165.56,365.14,Single-ply,SD,M
Boys,99.79,15,Raul Cazaros,Elkhart,96.71,136.08,68.04,147.42,351.53,Single-ply,SBD,M
Boys,99.79,16,Gonzalo Rojo,Troup,96.52,179.17,,140.61,319.78,Single-ply,SD,M
Boys,99.79,17,Gage Watlington,Joaquin,96.16,102.06,83.91,129.27,315.25,Single-ply,SBD,M
Boys,99.79,18,Anthony Santa-Maria,Troup,95.44,156.49,,145.15,301.64,Single-ply,SD,M
Boys,99.79,19,Abram Hairgrove,Beckville,92.26,,79.38,158.76,238.14,Single-ply,BD,M
Boys,99.79,20,Jace Phelps,Whitehouse,99.16,115.67,68.04,,183.7,Single-ply,SB,M
Boys,109.77,1,TJ Jones,Elkhart,107.95,272.16,156.49,244.94,673.58,Single-ply,SBD,M
Boys,109.77,2,Deonundre Hatton,Palestine,109.68,251.74,170.1,229.06,650.91,Single-ply,SBD,M
Boys,109.77,3,Logan Holloway,Center,107.68,231.33,136.08,208.65,576.06,Single-ply,SBD,M
Boys,109.77,4,Christian Perez,Beckville,109.41,208.65,115.67,226.8,551.11,Single-ply,SBD,M
Boys,109.77,5,Seth Hoffman,Elkhart,109.41,204.12,127.01,204.12,535.24,Single-ply,SBD,M
Boys,109.77,6,Johnathan Housley,Whitehouse,107.95,192.78,131.54,192.78,517.1,Single-ply,SBD,M
Boys,109.77,7,Cedric Hicks,Palestine,102.24,215.46,117.93,181.44,514.83,Single-ply,SBD,M
Boys,109.77,8,Weldon Brooks,Elkhart,105.23,192.78,120.2,185.97,498.95,Single-ply,SBD,M
Boys,109.77,9,Titus Harvey,Joaquin,105.14,176.9,97.52,204.12,478.54,Single-ply,SBD,M
Boys,109.77,10,Tristan LeGard,Cayuga,101.06,158.76,124.74,172.37,455.86,Single-ply,SBD,M
Boys,109.77,11,Taylor Swinney,Jacksonville,101.42,161.03,113.4,179.17,453.59,Single-ply,SBD,M
Boys,109.77,12,Marco Nunez,Jacksonville,109.68,172.37,97.52,176.9,446.79,Single-ply,SBD,M
Boys,109.77,13,Carson Wilborn,Bullard,109.59,181.44,92.99,167.83,442.25,Single-ply,SBD,M
Boys,109.77,14,Lance Deal,Whitehouse,101.79,161.03,99.79,174.63,435.45,Single-ply,SBD,M
Boys,109.77,15,Billy Davis,Hemphill,104.24,158.76,102.06,154.22,415.04,Single-ply,SBD,M
Boys,109.77,16,Augustin Jaimes,Troup,107.68,151.95,90.72,145.15,387.82,Single-ply,SBD,M
Boys,109.77,17,Logan Vickers,Hemphill,106.23,181.44,,204.12,385.55,Single-ply,SD,M
Boys,109.77,18,James Burns #1,Jacksonville,104.78,138.35,88.45,142.88,369.68,Single-ply,SBD,M
Boys,109.77,19,Hunter Lambright,Beckville,103.06,124.74,68.04,136.08,328.85,Single-ply,SBD,M
Boys,109.77,20,Lance Collins #2,Hemphill,104.69,140.61,,154.22,294.84,Single-ply,SD,M
Boys,124.74,1,Kawon McCowin,Shelbyville,122.2,272.16,181.44,249.48,703.07,Single-ply,SBD,M
Boys,124.74,2,Jermaine Lewis,Rusk,117.57,274.42,136.08,256.28,666.78,Single-ply,SBD,M
Boys,124.74,3,Keevon Jackson,Palestine Westwood,115.67,240.4,113.4,192.78,546.58,Single-ply,SBD,M
Boys,124.74,4,Dontavious Robinson,Palestine Westwood,123.29,204.12,117.93,172.37,494.42,Single-ply,SBD,M
Boys,124.74,5,Franco Rea,Grapeland,116.66,188.24,124.74,174.63,487.61,Single-ply,SBD,M
Boys,124.74,6,Dustin Gibson,New London West Rusk,115.67,181.44,92.99,158.76,433.18,Single-ply,SBD,M
Boys,124.74,7,Sebastian Espirella,Rusk,115.58,122.47,,154.22,276.69,Single-ply,SD,M
Boys,124.74+,1,Zach Bell,Joaquin,144.88,294.84,183.7,249.48,728.02,Single-ply,SBD,M
Boys,124.74+,2,Jesus Garcia-Castillo,Palestine,156.94,294.84,158.76,249.48,703.07,Single-ply,SBD,M
Boys,124.74+,3,John Campbell,Bullard,140.52,303.91,154.22,222.26,680.39,Single-ply,SBD,M
Boys,124.74+,4,Cade Jones,Elkhart,130.73,238.14,181.44,222.26,641.83,Single-ply,SBD,M
Boys,124.74+,5,Dejaun Ealy,Palestine,135.81,272.16,170.1,197.31,639.57,Single-ply,SBD,M
Boys,124.74+,6,Garrett Blaylock,Rusk,132.54,199.58,120.2,229.06,548.85,Single-ply,SBD,M
Boys,124.74+,7,Tradarion Sadler,Palestine,154.31,206.38,113.4,206.38,526.17,Single-ply,SBD,M
Boys,124.74+,8,Jashon Adams,Beckville,131.63,167.83,136.08,167.83,471.74,Single-ply,SBD,M
Boys,124.74+,9,Josh Leach,Palestine,125.83,183.7,83.91,170.1,437.72,Single-ply,SBD,M
Boys,124.74+,10,Samuel Turner #2,Whitehouse,128.46,158.76,79.38,170.1,408.23,Single-ply,SBD,M
Boys,124.74+,11,Tanner Hathaway,Bullard,128.09,163.29,72.57,142.88,378.75,Single-ply,SBD,M
